{
 "programming": {
  "title": "پی اچ پی",
  "thumb": null,
  "parent": null
 },
 "php": {
  "title": "پی اچ پی",
  "thumb": null,
  "parent": "programming"
 },
 "javascript": {
  "title": "جاوااسکریپت",
  "thumb": null,
  "parent": "programming"
 },
 "python": {
  "title": "پایتون",
  "thumb": null,
  "parent": "programming"
 }
}